<svg width="1137" height="602" viewBox="0 0 1137 602" version="1.1" xmlns="http://www.w3.org/2000/svg" xmlns:xlink="http://www.w3.org/1999/xlink">
<g id="Canvas" fill="none">
<g id="Group 2">
<g id="Vector">
<g id="Vector_2">
<path d="M 16.5 514.171L 0 526.203L 1135 526.203L 1135 247.861L 1124.5 300.802L 1117 300.802L 1109 348.93L 1103 334.492L 1093.5 352.941L 1077 383.422L 1070.5 392.246L 1064 376.203L 1059 392.246L 1049.5 392.246L 1046 372.193L 1039.5 339.305L 1033 339.305L 1025 321.658L 1016 339.305L 1010 306.417L 1005.5 310.428L 990.5 255.882L 985.5 282.353L 969.5 206.952L 963 214.973L 954 206.952L 946 214.973L 942 235.027L 934.5 172.46L 930 188.503L 923 161.23L 917 188.503L 913 226.203L 907 178.075C 904.833 200 897 244.652 897 247.861C 897 251.07 895 234.759 894 226.203C 892.667 241.444 889.8 274.011 889 282.353C 888.2 290.695 885.667 207.754 884.5 165.241L 877.5 188.503L 875 118.717L 869.5 137.968L 863.5 68.1818L 855 137.968L 850.5 118.717L 843 165.241L 843 77.8075L 825 145.187L 825 0L 816 60.9626L 808.5 42.5134L 802 111.497L 797 178.075L 781.5 178.075L 781.5 271.925L 766 235.027L 756 282.353L 740.5 214.973L 725.5 282.353L 725.5 271.925L 710 378.61L 710 364.171L 701 378.61L 673 349.733L 651.5 403.476L 634.5 378.61L 617 427.54L 608 403.476L 600 427.54L 578.5 427.54L 578.5 403.476L 544 427.54L 509.5 427.54L 474 448.396L 456 427.54L 439.5 448.396L 428 427.54L 417.5 403.476L 396 403.476L 389.5 378.61L 365.5 427.54L 338.5 403.476L 332 427.54L 320.5 448.396L 294 466.845L 282.5 466.845L 274.5 448.396L 259.5 466.845L 251.5 466.845L 241.5 448.396L 241.5 427.54L 211 448.396L 203 427.54L 188 448.396L 179 403.476L 168.5 403.476L 154.5 378.61L 144.5 448.396L 134 427.54L 124 448.396L 113.5 448.396L 99.5 481.283L 89.5 466.845L 69 503.743L 46 503.743L 29.5 514.171L 16.5 514.171Z" transform="translate(1 74.7968)" fill="#E8FFEA"/>
</g>
<g id="Line">
<line y1="-0.5" x2="600" y2="-0.5" transform="matrix(0 1 -1 0 183.263 1)" stroke="#E0E0E0"/>
</g>
<g id="Line_2">
<line y1="-0.5" x2="600" y2="-0.5" transform="matrix(0 1 -1 0 373.81 1)" stroke="#E0E0E0"/>
</g>
<g id="Line_3">
<line y1="-0.5" x2="600" y2="-0.5" transform="matrix(0 1 -1 0 564.358 1)" stroke="#E0E0E0"/>
</g>
<g id="Line_4">
<line y1="-0.5" x2="600" y2="-0.5" transform="matrix(0 1 -1 0 754.905 1)" stroke="#E0E0E0"/>
</g>
<g id="Line_5">
<line y1="-0.5" x2="600" y2="-0.5" transform="matrix(0 1 -1 0 945.453 1)" stroke="#E0E0E0"/>
</g>
<g id="Line_6">
<line y1="-0.5" x2="600" y2="-0.5" transform="matrix(0 1 -1 0 1136 1)" stroke="#E0E0E0"/>
</g>
</g>
<g id="Line 2.1">
<line y1="-0.5" x2="1136" y2="-0.5" transform="translate(0 121.321)" stroke="#F2F2F2"/>
</g>
<g id="Vector_3">
<path d="M 0 526.203L 16.5 514.171L 29.5 514.171L 46 503.743L 69 503.743L 89.5 466.845L 99.5 481.283L 113.5 448.396L 124 448.396L 134 427.54L 144.5 448.396L 154.5 378.61L 168.5 403.476L 179 403.476L 188 448.396L 203 427.54L 211 448.396L 241.5 427.54L 241.5 448.396L 251.5 466.845L 259.5 466.845L 274.5 448.396L 282.5 466.845L 294 466.845L 320.5 448.396L 332 427.54L 338.5 403.476L 365.5 427.54L 389.5 378.61L 396 403.476L 417.5 403.476L 428 427.54L 439.5 448.396L 456 427.54L 474 448.396L 509.5 427.54L 544 427.54L 578.5 403.476L 578.5 427.54L 600 427.54L 608 403.476L 617 427.54L 634.5 378.61L 651.5 403.476L 673 349.733L 701 378.61L 710 364.171L 710 378.61L 725.5 271.925L 725.5 282.353L 740.5 214.973L 756 282.353L 766 235.027L 781.5 271.925L 781.5 178.075L 797 178.075L 802 111.497L 808.5 42.5134L 816 60.9626L 825 0L 825 145.187L 843 77.8075L 843 165.241L 850.5 118.717L 855 137.968L 863.5 68.1818L 869.5 137.968L 875 118.717L 877.5 188.503L 884.5 165.241C 885.667 207.754 888.2 290.695 889 282.353C 889.8 274.011 892.667 241.444 894 226.203C 895 234.759 897 251.07 897 247.861C 897 244.652 904.833 200 907 178.075L 913 226.203L 917 188.503L 923 161.23L 930 188.503L 934.5 172.46L 942 235.027L 946 214.973L 954 206.952L 963 214.973L 969.5 206.952L 985.5 282.353L 990.5 255.882L 1005.5 310.428L 1010 306.417L 1016 339.305L 1025 321.658L 1033 339.305L 1039.5 339.305L 1046 372.192L 1049.5 392.246L 1059 392.246L 1064 376.203L 1070.5 392.246L 1077 383.422L 1093.5 352.941L 1103 334.492L 1109 348.93L 1117 300.802L 1124.5 300.802L 1135 247.861" stroke-width="2" transform="translate(1 74.7968)" stroke="#42D352"/>
</g>
<g id="Line_7">
<line y1="-0.5" x2="600" y2="-0.5" transform="matrix(0 1 -1 0 1 1)" stroke="#E0E0E0"/>
</g>
<g id="Line 2.2">
<line y1="-0.5" x2="1136" y2="-0.5" transform="translate(0 601)" stroke="#F2F2F2"/>
</g>
<g id="Line 2.3">
<line y1="-0.5" x2="1136" y2="-0.5" transform="translate(0 480.357)" stroke="#F2F2F2"/>
</g>
<g id="Line 2.4">
<line y1="-0.5" x2="1136" y2="-0.5" transform="translate(0 361.322)" stroke="#F2F2F2"/>
</g>
<g id="Line 2.5">
<line y1="-0.5" x2="1136" y2="-0.5" transform="translate(0 240.678)" stroke="#F2F2F2"/>
</g>
<g id="Line 2">
<line y1="-0.5" x2="1136" y2="-0.5" transform="translate(0 1)" stroke="#F2F2F2"/>
</g>
</g>
</g>
</svg>

